<svg xmlns="http://www.w3.org/2000/svg" width="12" height="11" viewBox="0 0 15 12">
    <path fill="#2282D4" fill-rule="nonzero" d="M10.273 4.938l-2.73-2.73A1 1 0 0 1 8.957.792l5.144 5.144-5.144 5.145a1 1 0 0 1-1.414-1.414l2.73-2.73H1.5a1 1 0 1 1 0-2h8.773z"/>
</svg>
