<svg xmlns="http://www.w3.org/2000/svg" width="74" height="30" viewBox="0 0 74 30">
    <g fill="none" fill-rule="evenodd">
        <path fill="#DF333B" d="M3.99 13.524c0-3.143 2.85-4.953 5.7-4.953 3.23 0 5.415 2 5.415 4.953H3.99zM9.785 6C4.465 6 0 8.286 0 15.143 0 20.57 3.04 24 9.975 24c8.17 0 8.74-5.429 8.74-5.429h-3.99s-.855 2.953-5.035 2.953c-3.325 0-5.795-2.286-5.795-5.524H19v-2.762C18.715 10.19 16.53 6 9.785 6z"/>
        <path fill="#2B61AA" d="M28.545 9.011c3.455 0 5.728 2.575 5.728 6.161 0 3.77-2.546 6.253-5.637 6.253-3.727 0-5.727-2.942-5.727-6.16-.09-3.127 1.727-6.254 5.636-6.254m-5.727.184V0h-3.727v13.517c0 .276 0 .46.09.736v1.93h-.09v4.415c0 1.195-.091 2.758-.091 2.758h3.636s.091-1.195.091-2.207c0 0 1.818 2.851 6.637 2.851C34.454 24 38 20.414 38 15.264c0-4.781-3.182-8.643-8.636-8.643-4.91-.184-6.546 2.574-6.546 2.574M18.55 13.828c0-.31 0-.518-.1-.828v3h.1v-2.172z"/>
        <path fill="#F2AE0D" d="M50.896 16.516c0 1.42-.839 5.02-6.062 5.02-2.798 0-4.01-1.42-4.01-3.125 0-3.032 4.103-3.032 10.072-3.032v1.137zm-12.684-5.4h3.918s.186-2.558 4.196-2.558c2.612 0 4.664 1.231 4.664 3.505v.853h-4.664c-6.155 0-9.326 1.8-9.326 5.495C37 22.105 39.984 24 44.088 24c5.503 0 7.275-3.126 7.275-3.126 0 1.231.093 2.463.093 2.463H55s-.187-1.516-.187-2.463v-8.337c0-.948-.093-1.705-.373-2.369l-.932-1.705C51.922 6.473 49.124 6 46.606 6h-.093c-7.834 0-8.3 4.453-8.3 5.116z"/>
        <path fill="#85B727" d="M61.642 23.564L58.296 30h4.182L74 7h-3.996l-6.318 12.967L57.367 7H53l.93 1.798c.37.474.65 1.042.928 1.704l6.784 13.062z"/>
    </g>
</svg>
