<svg xmlns="http://www.w3.org/2000/svg" xmlns:xlink="http://www.w3.org/1999/xlink" width="38" height="38" viewBox="0 0 38 38">
    <defs>
        <path id="a" d="M.96 18.054c0 9.942 8.059 18 18 18 9.942 0 18-8.058 18-18 0-9.94-8.058-18-18-18-9.941 0-18 8.06-18 18z"/>
    </defs>
    <g fill="none" fill-rule="evenodd" transform="translate(0 1)">
        <mask id="b" fill="#fff">
            <use xlink:href="#a"/>
        </mask>
        <use stroke="#ECF0F2" xlink:href="#a"/>
        <path fill="#34A53E" d="M-2 37.109h41.92v-38.11H-2z" mask="url(#b)"/>
        <path fill="#E52525" d="M19.764 37.109H39.92v-38.11H19.764z" mask="url(#b)"/>
        <path fill="#FFF" d="M11.935 36.959h14.166V-.943H11.935z" mask="url(#b)"/>
    </g>
</svg>
