<svg xmlns="http://www.w3.org/2000/svg" xmlns:xlink="http://www.w3.org/1999/xlink" width="38" height="38" viewBox="0 0 38 38">
    <defs>
        <path id="a" d="M18.693 0c-9.942 0-18 8.059-18 18s8.058 18 18 18c9.941 0 18-8.059 18-18s-8.059-18-18-18z"/>
    </defs>
    <g fill="none" fill-rule="evenodd" transform="translate(0 1)">
        <mask id="b" fill="#fff">
            <use xlink:href="#a"/>
        </mask>
        <use stroke="#ECF0F2" xlink:href="#a"/>
        <path fill="#E83434" d="M-10 36h57.356V0H-10z" mask="url(#b)"/>
        <path fill="#FFF915" d="M-10 26.185h57.386V9.605H-10z" mask="url(#b)"/>
    </g>
</svg>
