<svg xmlns="http://www.w3.org/2000/svg" width="11" height="11" viewBox="0 0 11 11">
    <path fill="#688094" fill-rule="evenodd" d="M7.67 4.346a1.64 1.64 0 0 1-.472.76c-.18.169-.372.326-.576.467-.147.107-.29.22-.435.334a.75.75 0 0 0-.213.312l-.107.26a.496.496 0 0 1-.462.315.605.605 0 0 1-.378-.081.606.606 0 0 1-.285-.554c.008-.271.116-.528.304-.724a5.29 5.29 0 0 1 .708-.609c.19-.137.352-.308.482-.502.176-.294.12-.775-.18-.988a.885.885 0 0 0-.366-.148 1.259 1.259 0 0 0-.602.034.817.817 0 0 0-.478.445c-.077.15-.146.305-.235.448a.587.587 0 0 1-.651.248.528.528 0 0 1-.45-.547c.003-.26.085-.515.234-.728.252-.36.608-.635 1.022-.785.276-.107.569-.165.864-.172.435-.007.865.076 1.266.243.34.136.627.376.822.685.238.385.306.851.189 1.287zM5.32 8.87a.729.729 0 1 1 0-1.458.729.729 0 0 1 0 1.458zM5.5 0a5.5 5.5 0 1 0 0 11 5.5 5.5 0 0 0 0-11z"/>
</svg>
